temi d'esame/2020 1o appello/waveform.vcd
$date
	Thu May 27 17:03:59 2021
$end
$version
	Icarus Verilog
$end
$timescale
	1s
$end
$scope module testbench $end
$var wire 1 ! soc $end
$var wire 8 " min [7:0] $end
$var wire 1 # dav_ $end
$var wire 1 $ clock $end
$var reg 1 % eoc1 $end
$var reg 1 & eoc2 $end
$var reg 1 ' eoc3 $end
$var reg 8 ( expected_min [7:0] $end
$var reg 5 ) i [4:0] $end
$var reg 5 * j [4:0] $end
$var reg 1 + reset_ $end
$var reg 1 , rfd $end
$var reg 8 - v1 [7:0] $end
$var reg 8 . v2 [7:0] $end
$var reg 8 / v3 [7:0] $end
$var reg 8 0 x1 [7:0] $end
$var reg 8 1 x2 [7:0] $end
$var reg 8 2 x3 [7:0] $end
$scope module clk $end
$var wire 1 $ clock $end
$var reg 1 3 CLOCK $end
$upscope $end
$scope module dut $end
$var wire 1 $ clock $end
$var wire 1 # dav_ $end
$var wire 1 % eoc1 $end
$var wire 1 & eoc2 $end
$var wire 1 ' eoc3 $end
$var wire 8 4 min [7:0] $end
$var wire 1 + reset_ $end
$var wire 1 , rfd $end
$var wire 1 ! soc $end
$var wire 8 5 x1 [7:0] $end
$var wire 8 6 x2 [7:0] $end
$var wire 8 7 x3 [7:0] $end
$var wire 8 8 ris [7:0] $end
$var reg 1 9 DAV $end
$var reg 8 : OUTR [7:0] $end
$var reg 8 ; RIS [7:0] $end
$var reg 1 < SOC $end
$var reg 2 = STAR [1:0] $end
$scope module minimo $end
$var wire 8 > x1 [7:0] $end
$var wire 8 ? x2 [7:0] $end
$var wire 8 @ x3 [7:0] $end
$var wire 8 A ris [7:0] $end
$var wire 1 B b3 $end
$var wire 1 C b2 $end
$var wire 1 D b1 $end
$scope module s1 $end
$var wire 1 E b_in $end
$var wire 8 F x [7:0] $end
$var wire 8 G y [7:0] $end
$var wire 8 H d [7:0] $end
$var wire 1 D b_out $end
$upscope $end
$scope module s2 $end
$var wire 1 I b_in $end
$var wire 8 J x [7:0] $end
$var wire 8 K y [7:0] $end
$var wire 8 L d [7:0] $end
$var wire 1 C b_out $end
$upscope $end
$scope module s3 $end
$var wire 1 M b_in $end
$var wire 8 N x [7:0] $end
$var wire 8 O y [7:0] $end
$var wire 8 P d [7:0] $end
$var wire 1 B b_out $end
$upscope $end
$upscope $end
$upscope $end
$scope fork f $end
$upscope $end
$upscope $end
$enddefinitions $end
#0
$dumpvars
bx P
bx O
bx N
0M
bx L
bx K
bx J
0I
bx H
bx G
bx F
0E
xD
xC
xB
bx A
bx @
bx ?
bx >
bx =
x<
bx ;
bx :
x9
bx 8
bx 7
bx 6
bx 5
bx 4
03
bx 2
bx 1
bx 0
bx /
bx .
bx -
1,
0+
bx *
bx )
bx (
1'
1&
1%
0$
x#
bx "
x!
$end
#1
b0 =
1#
19
0!
0<
#5
1$
13
b1010 (
b0 *
b11110 /
b10100 .
b1010 -
b0 )
1+
#8
1!
1<
#10
0$
03
#15
1$
13
#18
0%
#20
0$
03
#25
1$
13
#28
0&
#30
0$
03
#35
1$
13
#38
b1 =
0'
#40
0$
03
#45
1$
13
#48
0!
0<
#50
0$
03
#55
1$
13
#58
b1010 0
b1010 5
b1010 >
b1010 F
b1010 J
#60
0$
03
#65
1$
13
#68
1%
b10100 1
b10100 6
b10100 ?
b10100 G
b10100 O
#69
b11110110 H
1D
#70
0$
03
#75
1$
13
#78
b0xxxx0 8
b0xxxx0 A
b11110 2
b11110 7
b11110 @
b11110 K
b11110 N
#79
b1010 8
b1010 A
b11101100 L
1C
b1010 P
0B
#80
0$
03
#85
1$
13
#88
b1010 ;
1&
#90
0$
03
#95
1$
13
#100
0$
03
#105
1$
13
#108
b10 =
1'
#110
0$
03
#115
1$
13
#118
b11 =
0#
09
b1010 "
b1010 4
b1010 :
#120
0$
03
#125
1$
13
#128
b0 =
0,
#130
0$
03
#135
1$
13
#138
1#
19
1!
1<
#140
0$
03
#145
1$
13
#148
b1011 (
b1 *
b1011 /
b100001 .
b10110 -
b1 )
1,
